…
From this plot we can easily see many data features. There aren’t any
points that seem especially like outliers or obvious errors. Thus, the
data have probably been well cleaned. Most measurements are in
basements. Some counties have a lot more data. Which counties have the
most data? Calculate sample size in each county and sort by decreasing:

``` r
radon_dat %>%
    group_by(county) %>%
    summarize(sample_size=n()) %>%
    arrange(-sample_size)
```

    ## # A tibble: 85 × 2
    ##    county     sample_size
    ##    <chr>            <int>
    ##  1 ST LOUIS           116
    ##  2 HENNEPIN           105
    ##  3 DAKOTA              63
    ##  4 ANOKA               52
    ##  5 WASHINGTON          46
    ##  6 RAMSEY              32
    ##  7 STEARNS             25
    ##  8 OLMSTED             23
    ##  9 BLUE EARTH          14
    ## 10 CLAY                14
    ## # … with 75 more rows
…
